{
    "key": "group_6058a558ae41a",
    "title": "Block - Vertical bar",
    "fields": [
        {
            "key": "field_6058a568d95d3",
            "label": "Margin top",
            "name": "mt",
            "type": "number",
            "instructions": "",
            "required": 0,
            "conditional_logic": 0,
            "wrapper": {
                "width": "50",
                "class": "",
                "id": ""
            },
            "default_value": "",
            "placeholder": -10,
            "prepend": "",
            "append": "vh",
            "min": -30,
            "max": 30,
            "step": 1
        },
        {
            "key": "field_6062e292a6c35",
            "label": "Margin top Mobile",
            "name": "mt_mobile",
            "type": "number",
            "instructions": "",
            "required": 0,
            "conditional_logic": 0,
            "wrapper": {
                "width": "50",
                "class": "",
                "id": ""
            },
            "default_value": "",
            "placeholder": -10,
            "prepend": "",
            "append": "vh",
            "min": -30,
            "max": 30,
            "step": 1
        },
        {
            "key": "field_6058a59ed95d4",
            "label": "Hauteur",
            "name": "height",
            "type": "number",
            "instructions": "",
            "required": 0,
            "conditional_logic": 0,
            "wrapper": {
                "width": "50",
                "class": "",
                "id": ""
            },
            "default_value": "",
            "placeholder": 20,
            "prepend": "",
            "append": "vh",
            "min": 0,
            "max": 50,
            "step": 1
        },
        {
            "key": "field_6062e2cd85843",
            "label": "Hauteur Mobile",
            "name": "height_mobile",
            "type": "number",
            "instructions": "",
            "required": 0,
            "conditional_logic": 0,
            "wrapper": {
                "width": "50",
                "class": "",
                "id": ""
            },
            "default_value": "",
            "placeholder": 20,
            "prepend": "",
            "append": "vh",
            "min": 0,
            "max": 50,
            "step": 1
        },
        {
            "key": "field_6058a5ebd95d5",
            "label": "Margin bottom",
            "name": "mb",
            "type": "number",
            "instructions": "",
            "required": 0,
            "conditional_logic": 0,
            "wrapper": {
                "width": "50",
                "class": "",
                "id": ""
            },
            "default_value": "",
            "placeholder": -10,
            "prepend": "",
            "append": "vh",
            "min": -30,
            "max": 30,
            "step": 1
        },
        {
            "key": "field_6062e2e985844",
            "label": "Margin bottom Mobile",
            "name": "mb_mobile",
            "type": "number",
            "instructions": "",
            "required": 0,
            "conditional_logic": 0,
            "wrapper": {
                "width": "50",
                "class": "",
                "id": ""
            },
            "default_value": "",
            "placeholder": -10,
            "prepend": "",
            "append": "vh",
            "min": -30,
            "max": 30,
            "step": 1
        }
    ],
    "location": [
        [
            {
                "param": "block",
                "operator": "==",
                "value": "acf\/vertical-bar"
            }
        ]
    ],
    "menu_order": 0,
    "position": "normal",
    "style": "default",
    "label_placement": "top",
    "instruction_placement": "label",
    "hide_on_screen": "",
    "active": true,
    "description": "",
    "modified": 1630933952
}